SEED = 3 RMSE: 1.7495990046717502
SEED = 5 RMSE: 1.7293526837243387
SEED = 7 RMSE: 1.7292680203424806
SEED = 11 RMSE: 1.7220393964780982
SEED = 13 RMSE: 1.7220393964780982
SEED = 17 RMSE: 1.7185749805199144
SEED = 19 RMSE: 1.7185749805199144
SEED = 23 RMSE: 1.7185749805199144
SEED = 29 RMSE: 1.7185749805199144
SEED = 31 RMSE: 1.7185749805199144
SEED = 37 RMSE: 1.7185749805199144
SEED = 41 RMSE: 1.7185749805199144
SEED = 43 RMSE: 1.7185749805199144
SEED = 47 RMSE: 1.7185749805199144
SEED = 53 RMSE: 1.7185749805199144
SEED = 59 RMSE: 1.7185749805199144
SEED = 61 RMSE: 1.7185749805199144
SEED = 97 RMSE: 1.7431228983406784
SEED = 101 RMSE: 1.7431228983406784
SEED = 103 RMSE: 1.7381582524041093
SEED = 107 RMSE: 1.7252573062558045
SEED = 109 RMSE: 1.7252573062558045
SEED = 113 RMSE: 1.7252573062558045
SEED = 127 RMSE: 1.7252573062558045
SEED = 131 RMSE: 1.7252573062558045
SEED = 137 RMSE: 1.7252573062558045
SEED = 139 RMSE: 1.7252573062558045
SEED = 149 RMSE: 1.7252573062558045
SEED = 151 RMSE: 1.7044534253604422
SEED = 157 RMSE: 1.7044534253604422
SEED = 163 RMSE: 1.7044534253604422
SEED = 167 RMSE: 1.7044534253604422
SEED = 173 RMSE: 1.7044534253604422
SEED = 179 RMSE: 1.7044534253604422
SEED = 181 RMSE: 1.7044534253604422
SEED = 191 RMSE: 1.7044534253604422
SEED = 193 RMSE: 1.7044534253604422
SEED = 503 RMSE: 1.752403792744595
SEED = 509 RMSE: 1.752403792744595
SEED = 521 RMSE: 1.7417920602543444
SEED = 523 RMSE: 1.7417920602543444
SEED = 541 RMSE: 1.7417920602543444
SEED = 547 RMSE: 1.7123229514619962
SEED = 557 RMSE: 1.7123229514619962
SEED = 563 RMSE: 1.7123229514619962
SEED = 569 RMSE: 1.7123229514619962
SEED = 571 RMSE: 1.7123229514619962
SEED = 577 RMSE: 1.7123229514619962
SEED = 587 RMSE: 1.7123229514619962
SEED = 593 RMSE: 1.7123229514619962
SEED = 599 RMSE: 1.7014686340046423
SEED = 601 RMSE: 1.7014686340046423
SEED = 607 RMSE: 1.7014686340046423
SEED = 613 RMSE: 1.7014686340046423
SEED = 617 RMSE: 1.7014686340046423
SEED = 619 RMSE: 1.7014686340046423
SEED = 631 RMSE: 1.7014686340046423
SEED = 641 RMSE: 1.7014686340046423
SEED = 643 RMSE: 1.7014686340046423
SEED = 647 RMSE: 1.7014686340046423
SEED = 653 RMSE: 1.7014686340046423
SEED = 659 RMSE: 1.7014686340046423
SEED = 661 RMSE: 1.7014686340046423
SEED = 673 RMSE: 1.7014686340046423
SEED = 677 RMSE: 1.7014686340046423
SEED = 683 RMSE: 1.7014686340046423
SEED = 691 RMSE: 1.7014686340046423
SEED = 701 RMSE: 1.7014686340046423
SEED = 709 RMSE: 1.7014686340046423
SEED = 719 RMSE: 1.7014686340046423
SEED = 727 RMSE: 1.7014686340046423
SEED = 733 RMSE: 1.7014686340046423
SEED = 739 RMSE: 1.7014686340046423
SEED = 743 RMSE: 1.7014686340046423
SEED = 751 RMSE: 1.7014686340046423
SEED = 757 RMSE: 1.7014686340046423
SEED = 761 RMSE: 1.7014686340046423
SEED = 769 RMSE: 1.7014686340046423
SEED = 773 RMSE: 1.7014686340046423
SEED = 787 RMSE: 1.7014686340046423
SEED = 797 RMSE: 1.7014686340046423
SEED = 809 RMSE: 1.7014686340046423
SEED = 811 RMSE: 1.7014686340046423
SEED = 821 RMSE: 1.7014686340046423
SEED = 823 RMSE: 1.7014686340046423
SEED = 827 RMSE: 1.7014686340046423
SEED = 829 RMSE: 1.7014686340046423
SEED = 839 RMSE: 1.7014686340046423
SEED = 853 RMSE: 1.7014686340046423
SEED = 857 RMSE: 1.7014686340046423
SEED = 859 RMSE: 1.7014686340046423
SEED = 863 RMSE: 1.7014686340046423
SEED = 877 RMSE: 1.7014686340046423
SEED = 881 RMSE: 1.7014686340046423
SEED = 883 RMSE: 1.7014686340046423
SEED = 887 RMSE: 1.7014686340046423
SEED = 929 RMSE: 1.7014686340046423
SEED = 937 RMSE: 1.7014686340046423
SEED = 941 RMSE: 1.7014686340046423
SEED = 947 RMSE: 1.7014686340046423
SEED = 953 RMSE: 1.7014686340046423
SEED = 967 RMSE: 1.7014686340046423
SEED = 971 RMSE: 1.7014686340046423
SEED = 977 RMSE: 1.7014686340046423
SEED = 991 RMSE: 1.7014686340046423
SEED = 997 RMSE: 1.7014686340046423